Create Tidy Long-Format Peak Table with Optional Annotations — tidy_peaklist • tidyXCMS
…
# View adduct annotations
peak_table %>%
  filter(!is.na(adduct)) %>%
  select(feature_id, f_mzmed, f_rtmed, adduct, pcgroup)
#> # A tibble: 1,044 × 5
#>    feature_id f_mzmed f_rtmed adduct                                     pcgroup
#>         <int>   <dbl>   <dbl> <chr>                                        <int>
#>  1          1    205    2788. "[M+H-C3H9N-C2H4O2]+ 323.091"                   10
#>  2          2    206    2785. "[M+H-NH3-C3H4]+ 262.041 [M+H-C4H6O]+ 275…      36
#>  3          3    207.   2713. ""                                             164
#>  4          4    233    3025. ""                                             181
#>  5          5    233.   3016. ""                                             208
#>  6          6    240.   3677. ""                                             228
#>  7          7    241.   3670. ""                                              97
#>  8          8    242.   3674. ""                                             202
#>  9          9    244.   2829. ""                                             146
#> 10         10    249.   3664. "[M+H-C4H6-H2O]+ 320.158 [M+H-C4H6-NH3-H2…     111
#> # ℹ 1,034 more rows
…
