…
![Boxplot showing the distribution of log10-transformed feature
intensities across sample groups. The plot displays the median,
quartiles, and outliers for each
group.](long-format-peaklist_files/figure-html/plot_intensities-1.png)

### Identify Features with Adduct Annotations

``` r
# Count features by adduct type
peak_table %>%
  filter(!is.na(adduct)) %>%
  distinct(feature_id, adduct) %>%
  count(adduct, sort = TRUE)
#> # A tibble: 75 × 2
#>    adduct                       n
#>    <chr>                    <int>
#>  1 ""                         768
#>  2 "[2M+Na+2K]3+ 590.193"       1
#>  3 "[2M+Na+3K-H]3+ 589.198"     1
#>  4 "[3M+2Na]2+ 210.138"         1
#>  5 "[3M+H+Na]2+ 384.195"        1
#>  6 "[M+2H-CH4]2+ 524.213"       1
#>  7 "[M+2Na-H]+ 384.234"         1
#>  8 "[M+H+NH3]+ 304.113"         1
#>  9 "[M+H-C2H4]+ 328.015"        1
#> 10 "[M+H-C2H4]+ 519.288"        1
#> # ℹ 65 more rows
```
…
